[
{
  "name":"${package}.Main",
  "methods":[{"name":"main","parameterTypes":["java.lang.String[]"] }]
},
{
  "name":"[Ljava.lang.Object;"
},
{
  "name":"[Ljava.lang.String;"
},
{
  "name":"[Lsun.java2d.loops.GraphicsPrimitive;"
},
{
  "name":"java.lang.Boolean",
  "methods":[{"name":"getBoolean","parameterTypes":["java.lang.String"] }]
},
{
  "name":"java.lang.Class",
  "methods":[{"name":"forName","parameterTypes":["java.lang.String","boolean","java.lang.ClassLoader"] }]
},
{
  "name":"java.lang.ClassLoader",
  "methods":[
    {"name":"getPlatformClassLoader","parameterTypes":[] }, 
    {"name":"loadClass","parameterTypes":["java.lang.String"] }
  ]
},
{
  "name":"java.lang.Iterable",
  "methods":[{"name":"iterator","parameterTypes":[] }],
  "queryAllPublicMethods":true
},
{
  "name":"java.lang.String",
  "methods":[{"name":"toLowerCase","parameterTypes":["java.util.Locale"] }]
},
{
  "name":"java.lang.String[]"
},
{
  "name":"java.lang.System",
  "methods":[
    {"name":"load","parameterTypes":["java.lang.String"] }, 
    {"name":"setProperty","parameterTypes":["java.lang.String","java.lang.String"] }
  ]
},
{
  "name":"java.util.ArrayList",
  "methods":[
    {"name":"<init>","parameterTypes":[]},
    {"name":"<init>","parameterTypes":["int"] }, 
    {"name":"add","parameterTypes":["java.lang.Object"] },
    {"name":"get","parameterTypes":["int"] }
  ]
},
{
  "name":"java.util.HashSet",
  "methods":[{"name":"<init>","parameterTypes":[] }],
  "queryAllPublicMethods":true
},
{
  "name":"java.util.HashMap",
  "methods":[
    {"name":"containsKey","parameterTypes":["java.lang.Object"] }, 
    {"name":"get","parameterTypes":["java.lang.Object"] }, 
    {"name":"put","parameterTypes":["java.lang.Object","java.lang.Object"] }
  ]
},
{
  "name":"java.util.Iterator",
  "methods":[
    {"name":"hasNext","parameterTypes":[] }, 
    {"name":"next","parameterTypes":[] }
  ],
  "queryAllPublicMethods":true
},
{
  "name":"java.util.Map",
  "methods":[
    {"name":"containsKey","parameterTypes":["java.lang.Object"] }, 
    {"name":"get","parameterTypes":["java.lang.Object"] }, 
    {"name":"keySet","parameterTypes":[] }
  ],
  "queryAllPublicMethods":true
},
{
  "name":"java.util.Set",
  "methods":[
    {"name":"add","parameterTypes":["java.lang.Object"] }, 
    {"name":"size","parameterTypes":[] }, 
    {"name":"toArray","parameterTypes":["java.lang.Object[]"] }
  ],
  "queryAllPublicMethods":true
},
{
  "name":"java.lang.Runnable",
  "queryAllPublicMethods":true
},
{
  "name":"java.lang.String",
  "queryAllPublicMethods":true
},
{
  "name":"java.lang.Thread",
  "queryAllPublicMethods":true
},
{
  "name":"java.nio.ByteBuffer",
  "allPublicMethods":true
},
{
  "name":"java.nio.ByteOrder",
  "allPublicMethods":true
},
{
  "name":"java.awt.AlphaComposite",
  "fields":[
    {"name":"extraAlpha"}, 
    {"name":"rule"}
  ]
},
{
  "name":"java.awt.AWTEvent",
  "fields":[
    {"name":"bdata"}, 
    {"name":"consumed"}, 
    {"name":"id"}
  ]
},
{
  "name":"java.awt.Color",
  "fields":[{"name":"value"}],
  "methods":[{"name":"getRGB","parameterTypes":[] }]
},
{
  "name":"java.awt.Component",
  "fields":[
    {"name":"appContext"}, 
    {"name":"background"}, 
    {"name":"cursor"}, 
    {"name":"enabled"}, 
    {"name":"focusable"}, 
    {"name":"foreground"}, 
    {"name":"graphicsConfig"}, 
    {"name":"height"}, 
    {"name":"parent"}, 
    {"name":"peer"}, 
    {"name":"visible"}, 
    {"name":"width"}, 
    {"name":"x"}, 
    {"name":"y"}
  ],
  "methods":[
    {"name":"getFont_NoClientCode","parameterTypes":[] }, 
    {"name":"getLocationOnScreen_NoTreeLock","parameterTypes":[] }, 
    {"name":"getToolkitImpl","parameterTypes":[] }, 
    {"name":"isEnabledImpl","parameterTypes":[] }
  ]
},
{
  "name":"java.awt.Dimension",
  "fields":[
    {"name":"height"}, 
    {"name":"width"}
  ]
},
{
  "name":"java.awt.Font",
  "fields":[
    {"name":"name"}, 
    {"name":"pData"}, 
    {"name":"size"}, 
    {"name":"style"}
  ],
  "methods":[
    {"name":"getFont","parameterTypes":["java.lang.String"] }, 
    {"name":"getFontPeer","parameterTypes":[] }
  ]
},
{
  "name":"java.awt.FontMetrics",
  "fields":[{"name":"font"}],
  "methods":[{"name":"getHeight","parameterTypes":[] }]
},
{
  "name":"java.awt.Insets",
  "fields":[
    {"name":"bottom"}, 
    {"name":"left"}, 
    {"name":"right"}, 
    {"name":"top"}
  ],
  "methods":[{"name":"<init>","parameterTypes":["int","int","int","int"] }]
},
{
  "name":"java.awt.Toolkit",
  "allDeclaredFields":true,
  "methods":[
    {"name":"getDefaultToolkit","parameterTypes":[] }, 
    {"name":"getFontMetrics","parameterTypes":["java.awt.Font"] }
  ]
},
{
  "name":"java.awt.desktop.UserSessionEvent$Reason",
  "fields":[
    {"name":"CONSOLE"}, 
    {"name":"LOCK"}, 
    {"name":"REMOTE"}, 
    {"name":"UNSPECIFIED"}
  ]
},
{
  "name":"java.awt.event.InputEvent",
  "fields":[{"name":"modifiers"}],
  "methods":[{"name":"getButtonDownMasks","parameterTypes":[] }]
},
{
  "name":"java.awt.GraphicsEnvironment",
  "methods":[{"name":"isHeadless","parameterTypes":[] }]
},
{
  "name":"java.awt.geom.AffineTransform",
  "fields":[
    {"name":"m00"}, 
    {"name":"m01"}, 
    {"name":"m02"}, 
    {"name":"m10"}, 
    {"name":"m11"}, 
    {"name":"m12"}
  ]
},
{
  "name":"java.awt.geom.GeneralPath",
  "methods":[
    {"name":"<init>","parameterTypes":[] }, 
    {"name":"<init>","parameterTypes":["int","byte[]","int","float[]","int"] }
  ]
},
{
  "name":"java.awt.geom.Path2D",
  "fields":[
    {"name":"numTypes"}, 
    {"name":"pointTypes"}, 
    {"name":"windingRule"}
  ]
},
{
  "name":"java.awt.geom.Path2D$Float",
  "fields":[{"name":"floatCoords"}]
},
{
  "name":"java.awt.geom.Point2D$Float",
  "fields":[
    {"name":"x"}, 
    {"name":"y"}
  ],
  "methods":[{"name":"<init>","parameterTypes":["float","float"] }]
},
{
  "name":"java.awt.geom.Rectangle2D$Float",
  "fields":[
    {"name":"height"}, 
    {"name":"width"}, 
    {"name":"x"}, 
    {"name":"y"}
  ],
  "methods":[
    {"name":"<init>","parameterTypes":[] }, 
    {"name":"<init>","parameterTypes":["float","float","float","float"] }
  ]
},
{
  "name":"java.awt.image.BufferedImage",
  "fields":[
    {"name":"colorModel"}, 
    {"name":"imageType"}, 
    {"name":"raster"}
  ],
  "methods":[
    {"name":"getRGB","parameterTypes":["int","int","int","int","int[]","int","int"] }, 
    {"name":"setRGB","parameterTypes":["int","int","int","int","int[]","int","int"] }
  ]
},
{
  "name":"java.awt.image.ColorModel",
  "fields":[
    {"name":"colorSpace"}, 
    {"name":"colorSpaceType"}, 
    {"name":"isAlphaPremultiplied"}, 
    {"name":"is_sRGB"}, 
    {"name":"nBits"}, 
    {"name":"numComponents"}, 
    {"name":"pData"}, 
    {"name":"supportsAlpha"}, 
    {"name":"transparency"}
  ],
  "methods":[{"name":"getRGBdefault","parameterTypes":[] }]
},
{
  "name":"java.awt.image.ComponentColorModel"
},
{
  "name":"java.awt.image.DirectColorModel"
},
{
  "name":"java.awt.image.IndexColorModel",
  "fields":[
    {"name":"allgrayopaque"}, 
    {"name":"colorData"}, 
    {"name":"lookupcache"}, 
    {"name":"map_size"}, 
    {"name":"rgb"}, 
    {"name":"transparent_index"}
  ]
},
{
  "name":"java.awt.image.PackedColorModel"
},
{
  "name":"java.awt.image.SinglePixelPackedSampleModel",
  "fields":[
    {"name":"bitMasks"}, 
    {"name":"bitOffsets"}, 
    {"name":"bitSizes"}, 
    {"name":"maxBitSize"}
  ]
},
{
  "name":"java.awt.image.Raster",
  "fields":[
    {"name":"dataBuffer"}, 
    {"name":"height"}, 
    {"name":"minX"}, 
    {"name":"minY"}, 
    {"name":"numBands"}, 
    {"name":"numDataElements"}, 
    {"name":"sampleModel"}, 
    {"name":"sampleModelTranslateX"}, 
    {"name":"sampleModelTranslateY"}, 
    {"name":"width"}
  ]
},
{
  "name":"java.awt.image.SampleModel",
  "fields":[
    {"name":"height"}, 
    {"name":"width"}
  ],
  "methods":[
    {"name":"getPixels","parameterTypes":["int","int","int","int","int[]","java.awt.image.DataBuffer"] }, 
    {"name":"setPixels","parameterTypes":["int","int","int","int","int[]","java.awt.image.DataBuffer"] }
  ]
},
{
  "name":"java.awt.image.SinglePixelPackedSampleModel",
  "fields":[
    {"name":"bitMasks"}, 
    {"name":"bitOffsets"}, 
    {"name":"bitSizes"}, 
    {"name":"maxBitSize"}
  ]
},
{
  "name":"jdk.internal.loader.ClassLoaders$PlatformClassLoader"
},
{
  "name":"org.fusesource.jansi.internal.Kernel32",
  "fields":[
    {"name":"BACKGROUND_BLUE"}, 
    {"name":"BACKGROUND_GREEN"}, 
    {"name":"BACKGROUND_INTENSITY"}, 
    {"name":"BACKGROUND_RED"}, 
    {"name":"COMMON_LVB_GRID_HORIZONTAL"}, 
    {"name":"COMMON_LVB_GRID_LVERTICAL"}, 
    {"name":"COMMON_LVB_GRID_RVERTICAL"}, 
    {"name":"COMMON_LVB_LEADING_BYTE"}, 
    {"name":"COMMON_LVB_REVERSE_VIDEO"}, 
    {"name":"COMMON_LVB_TRAILING_BYTE"}, 
    {"name":"COMMON_LVB_UNDERSCORE"}, 
    {"name":"FOREGROUND_BLUE"}, 
    {"name":"FOREGROUND_GREEN"}, 
    {"name":"FOREGROUND_INTENSITY"}, 
    {"name":"FOREGROUND_RED"}, 
    {"name":"FORMAT_MESSAGE_FROM_SYSTEM"}, 
    {"name":"INVALID_HANDLE_VALUE"}, 
    {"name":"STD_ERROR_HANDLE"}, 
    {"name":"STD_INPUT_HANDLE"}, 
    {"name":"STD_OUTPUT_HANDLE"}
  ]
},
{
  "name":"org.fusesource.jansi.internal.Kernel32$CONSOLE_SCREEN_BUFFER_INFO",
  "fields":[
    {"name":"SIZEOF"}, 
    {"name":"attributes"}, 
    {"name":"cursorPosition"}, 
    {"name":"maximumWindowSize"}, 
    {"name":"size"}, 
    {"name":"window"}
  ]
},
{
  "name":"org.fusesource.jansi.internal.Kernel32$COORD",
  "fields":[
    {"name":"SIZEOF"}, 
    {"name":"x"}, 
    {"name":"y"}
  ]
},
{
  "name":"org.fusesource.jansi.internal.Kernel32$SMALL_RECT",
  "fields":[
    {"name":"SIZEOF"}, 
    {"name":"bottom"}, 
    {"name":"left"}, 
    {"name":"right"}, 
    {"name":"top"}
  ]
},
{
  "name":"org.fusesource.jansi.internal.CLibrary",
  "fields":[
    {"name":"HAVE_ISATTY"}, 
    {"name":"HAVE_TTYNAME"}, 
    {"name":"TCSADRAIN"}, 
    {"name":"TCSAFLUSH"}, 
    {"name":"TCSANOW"}, 
    {"name":"TIOCGETD"}, 
    {"name":"TIOCGWINSZ"}, 
    {"name":"TIOCSETD"}, 
    {"name":"TIOCSWINSZ"}
  ]
},
{
  "name":"org.fusesource.jansi.internal.CLibrary$WinSize",
  "fields":[
    {"name":"SIZEOF"}, 
    {"name":"ws_col"}, 
    {"name":"ws_row"}, 
    {"name":"ws_xpixel"}, 
    {"name":"ws_ypixel"}
  ]
},
{
  "name":"org.graalvm.jniutils.JNIExceptionWrapperEntryPoints",
  "methods":[{"name":"getClassName","parameterTypes":["java.lang.Class"] }]
},
{
  "name":"sun.awt.AWTAutoShutdown",
  "methods":[
    {"name":"notifyToolkitThreadBusy","parameterTypes":[] }, 
    {"name":"notifyToolkitThreadFree","parameterTypes":[] }
  ]
},
{
  "name":"sun.awt.SunHints",
  "fields":[{"name":"INTVAL_STROKE_PURE"}]
},
{
  "name":"sun.awt.SunToolkit",
  "methods":[{"name":"isTouchKeyboardAutoShowEnabled","parameterTypes":[] }]
},
{
  "name":"sun.awt.Win32GraphicsConfig",
  "fields":[{"name":"visual"}]
},
{
  "name":"sun.awt.Win32GraphicsDevice",
  "fields":[{"name":"dynamicColorModel"}]
},
{
  "name":"sun.awt.Win32GraphicsEnvironment",
  "methods":[{"name":"dwmCompositionChanged","parameterTypes":["boolean"] }]
},
{
  "name":"sun.awt.X11.XErrorHandlerUtil",
  "methods":[{"name":"init","parameterTypes":["long"] }]
},
{
  "name":"sun.awt.X11GraphicsConfig",
  "fields":[
    {"name":"aData"}, 
    {"name":"bitsPerPixel"}
  ]
},
{
  "name":"sun.awt.X11.XToolkit",
  "fields":[
    {"name":"modLockIsShiftLock"}, 
    {"name":"numLockMask"}
  ]
},
{
  "name":"sun.awt.X11GraphicsDevice",
  "methods":[{"name":"addDoubleBufferVisual","parameterTypes":["int"] }]
},
{
  "name":"sun.awt.image.BufImgSurfaceData$ICMColorData",
  "fields":[{"name":"pData"}],
  "methods":[{"name":"<init>","parameterTypes":["long"] }]
},
{
  "name":"sun.awt.image.ByteComponentRaster",
  "fields":[
    {"name":"data"}, 
    {"name":"dataOffsets"}, 
    {"name":"pixelStride"}, 
    {"name":"scanlineStride"}, 
    {"name":"type"}
  ]
},
{
  "name":"sun.awt.image.BytePackedRaster",
  "fields":[
    {"name":"data"}, 
    {"name":"dataBitOffset"}, 
    {"name":"pixelBitStride"}, 
    {"name":"scanlineStride"}, 
    {"name":"type"}
  ]
},
{
  "name":"sun.awt.image.ImageRepresentation",
  "fields":[
    {"name":"numSrcLUT"}, 
    {"name":"srcLUTtransIndex"}
  ]
},
{
  "name":"sun.awt.image.IntegerComponentRaster",
  "fields":[
    {"name":"data"}, 
    {"name":"dataOffsets"}, 
    {"name":"pixelStride"}, 
    {"name":"scanlineStride"}, 
    {"name":"type"}
  ]
},
{
  "name":"sun.awt.image.ShortComponentRaster",
  "fields":[
    {"name":"data"}, 
    {"name":"dataOffsets"}, 
    {"name":"pixelStride"}, 
    {"name":"scanlineStride"}, 
    {"name":"type"}
  ]
},
{
  "name":"sun.awt.image.ByteComponentRaster",
  "fields":[
    {"name":"data"}, 
    {"name":"dataOffsets"}, 
    {"name":"pixelStride"}, 
    {"name":"scanlineStride"}, 
    {"name":"type"}
  ]
},
{
  "name":"sun.awt.image.SunVolatileImage",
  "fields":[{"name":"volSurfaceManager"}]
},
{
  "name":"sun.awt.image.VolatileSurfaceManager",
  "fields":[{"name":"sdCurrent"}]
},
{
  "name":"sun.awt.windows.WComponentPeer",
  "fields":[
    {"name":"hwnd"}, 
    {"name":"winGraphicsConfig"}
  ],
  "methods":[
    {"name":"disposeLater","parameterTypes":[] }, 
    {"name":"replaceSurfaceData","parameterTypes":[] }, 
    {"name":"replaceSurfaceDataLater","parameterTypes":[] }
  ]
},
{
  "name":"sun.awt.windows.WDesktopPeer",
  "methods":[
    {"name":"systemSleepCallback","parameterTypes":["boolean"] }, 
    {"name":"userSessionCallback","parameterTypes":["boolean","java.awt.desktop.UserSessionEvent$Reason"] }
  ]
},
{
  "name":"sun.awt.windows.WObjectPeer",
  "fields":[
    {"name":"createError"}, 
    {"name":"destroyed"}, 
    {"name":"pData"}, 
    {"name":"target"}
  ],
  "methods":[{"name":"getPeerForTarget","parameterTypes":["java.lang.Object"] }]
},
{
  "name":"sun.awt.windows.WToolkit",
  "methods":[
    {"name":"displayChanged","parameterTypes":[] }, 
    {"name":"paletteChanged","parameterTypes":[] }, 
    {"name":"windowsSettingChange","parameterTypes":[] }
  ]
},
{
  "name":"sun.font.CharToGlyphMapper",
  "methods":[{"name":"charToGlyph","parameterTypes":["int"] }]
},
{
  "name":"sun.font.Font2D",
  "methods":[
    {"name":"canDisplay","parameterTypes":["char"] }, 
    {"name":"charToGlyph","parameterTypes":["int"] }, 
    {"name":"charToVariationGlyph","parameterTypes":["int","int"] }, 
    {"name":"getMapper","parameterTypes":[] }, 
    {"name":"getTableBytes","parameterTypes":["int"] }
  ]
},
{
  "name":"sun.font.FontStrike",
  "methods":[{"name":"getGlyphMetrics","parameterTypes":["int"] }]
},
{
  "name":"sun.font.FontUtilities",
  "methods":[{"name":"debugFonts","parameterTypes":[] }]
},
{
  "name":"sun.font.FreetypeFontScaler",
  "methods":[{"name":"invalidateScaler","parameterTypes":[] }]
},
{
  "name":"sun.font.GlyphList",
  "fields":[
    {"name":"gposx"}, 
    {"name":"gposy"}, 
    {"name":"images"}, 
    {"name":"lcdRGBOrder"}, 
    {"name":"lcdSubPixPos"}, 
    {"name":"len"}, 
    {"name":"positions"}, 
    {"name":"usePositions"},
    {"name":"x"},
    {"name":"y"}
  ]
},
{
  "name":"sun.font.PhysicalStrike",
  "fields":[{"name":"pScalerContext"}],
  "methods":[
    {"name":"adjustPoint","parameterTypes":["java.awt.geom.Point2D$Float"] }, 
    {"name":"getGlyphPoint","parameterTypes":["int","int"] }
  ]
},
{
  "name":"sun.font.StrikeMetrics",
  "methods":[{"name":"<init>","parameterTypes":["float","float","float","float","float","float","float","float","float","float"] }]
},
{
  "name":"sun.font.TrueTypeFont",
  "methods":[
    {"name":"readBlock","parameterTypes":["java.nio.ByteBuffer","int","int"] }, 
    {"name":"readBytes","parameterTypes":["int","int"] }
  ]
},
{
  "name":"sun.font.Type1Font",
  "methods":[{"name":"readFile","parameterTypes":["java.nio.ByteBuffer"] }]
},
{
  "name":"sun.java2d.Disposer",
  "methods":[{"name":"addRecord","parameterTypes":["java.lang.Object","long","long"] }]
},
{
  "name":"sun.java2d.InvalidPipeException"
},
{
  "name":"sun.java2d.NullSurfaceData"
},
{
  "name":"sun.java2d.SunGraphics2D",
  "fields":[
    {"name":"clipRegion"}, 
    {"name":"composite"}, 
    {"name":"eargb"}, 
    {"name":"lcdTextContrast"}, 
    {"name":"pixel"}, 
    {"name":"strokeHint"}
  ]
},
{
  "name":"sun.java2d.SurfaceData",
  "fields":[
    {"name":"pData"}, 
    {"name":"valid"}
  ]
},
{
  "name":"sun.java2d.d3d.D3DGraphicsDevice$1",
  "methods":[{"name":"run","parameterTypes":[] }]
},
{
  "name":"sun.java2d.d3d.D3DRenderQueue$1",
  "methods":[{"name":"run","parameterTypes":[] }]
},
{
  "name":"sun.java2d.loops.Blit",
  "methods":[{"name":"<init>","parameterTypes":["long","sun.java2d.loops.SurfaceType","sun.java2d.loops.CompositeType","sun.java2d.loops.SurfaceType"] }]
},
{
  "name":"sun.java2d.loops.BlitBg",
  "methods":[{"name":"<init>","parameterTypes":["long","sun.java2d.loops.SurfaceType","sun.java2d.loops.CompositeType","sun.java2d.loops.SurfaceType"] }]
},
{
  "name":"sun.java2d.loops.CompositeType",
  "fields":[
    {"name":"AnyAlpha"}, 
    {"name":"Src"}, 
    {"name":"SrcNoEa"}, 
    {"name":"SrcOver"}, 
    {"name":"SrcOverNoEa"}, 
    {"name":"Xor"}
  ]
},
{
  "name":"sun.java2d.loops.DrawGlyphList",
  "methods":[{"name":"<init>","parameterTypes":["long","sun.java2d.loops.SurfaceType","sun.java2d.loops.CompositeType","sun.java2d.loops.SurfaceType"] }]
},
{
  "name":"sun.java2d.loops.DrawGlyphListAA",
  "methods":[{"name":"<init>","parameterTypes":["long","sun.java2d.loops.SurfaceType","sun.java2d.loops.CompositeType","sun.java2d.loops.SurfaceType"] }]
},
{
  "name":"sun.java2d.loops.DrawGlyphListLCD",
  "methods":[{"name":"<init>","parameterTypes":["long","sun.java2d.loops.SurfaceType","sun.java2d.loops.CompositeType","sun.java2d.loops.SurfaceType"] }]
},
{
  "name":"sun.java2d.loops.DrawLine",
  "methods":[{"name":"<init>","parameterTypes":["long","sun.java2d.loops.SurfaceType","sun.java2d.loops.CompositeType","sun.java2d.loops.SurfaceType"] }]
},
{
  "name":"sun.java2d.loops.DrawParallelogram",
  "methods":[{"name":"<init>","parameterTypes":["long","sun.java2d.loops.SurfaceType","sun.java2d.loops.CompositeType","sun.java2d.loops.SurfaceType"] }]
},
{
  "name":"sun.java2d.loops.DrawPath",
  "methods":[{"name":"<init>","parameterTypes":["long","sun.java2d.loops.SurfaceType","sun.java2d.loops.CompositeType","sun.java2d.loops.SurfaceType"] }]
},
{
  "name":"sun.java2d.loops.DrawPolygons",
  "methods":[{"name":"<init>","parameterTypes":["long","sun.java2d.loops.SurfaceType","sun.java2d.loops.CompositeType","sun.java2d.loops.SurfaceType"] }]
},
{
  "name":"sun.java2d.loops.DrawRect",
  "methods":[{"name":"<init>","parameterTypes":["long","sun.java2d.loops.SurfaceType","sun.java2d.loops.CompositeType","sun.java2d.loops.SurfaceType"] }]
},
{
  "name":"sun.java2d.loops.FillParallelogram",
  "methods":[{"name":"<init>","parameterTypes":["long","sun.java2d.loops.SurfaceType","sun.java2d.loops.CompositeType","sun.java2d.loops.SurfaceType"] }]
},
{
  "name":"sun.java2d.loops.FillPath",
  "methods":[{"name":"<init>","parameterTypes":["long","sun.java2d.loops.SurfaceType","sun.java2d.loops.CompositeType","sun.java2d.loops.SurfaceType"] }]
},
{
  "name":"sun.java2d.loops.FillRect",
  "methods":[{"name":"<init>","parameterTypes":["long","sun.java2d.loops.SurfaceType","sun.java2d.loops.CompositeType","sun.java2d.loops.SurfaceType"] }]
},
{
  "name":"sun.java2d.loops.FillSpans",
  "methods":[{"name":"<init>","parameterTypes":["long","sun.java2d.loops.SurfaceType","sun.java2d.loops.CompositeType","sun.java2d.loops.SurfaceType"] }]
},
{
  "name":"sun.java2d.loops.GraphicsPrimitive",
  "fields":[{"name":"pNativePrim"}]
},
{
  "name":"sun.java2d.loops.GraphicsPrimitive[]"
},
{
  "name":"sun.java2d.loops.GraphicsPrimitiveMgr",
  "methods":[{"name":"register","parameterTypes":["sun.java2d.loops.GraphicsPrimitive[]"] }]
},
{
  "name":"sun.java2d.loops.MaskBlit",
  "methods":[{"name":"<init>","parameterTypes":["long","sun.java2d.loops.SurfaceType","sun.java2d.loops.CompositeType","sun.java2d.loops.SurfaceType"] }]
},
{
  "name":"sun.java2d.loops.MaskFill",
  "methods":[{"name":"<init>","parameterTypes":["long","sun.java2d.loops.SurfaceType","sun.java2d.loops.CompositeType","sun.java2d.loops.SurfaceType"] }]
},
{
  "name":"sun.java2d.loops.ScaledBlit",
  "methods":[{"name":"<init>","parameterTypes":["long","sun.java2d.loops.SurfaceType","sun.java2d.loops.CompositeType","sun.java2d.loops.SurfaceType"] }]
},
{
  "name":"sun.java2d.loops.SurfaceType",
  "fields":[
    {"name":"Any3Byte"}, 
    {"name":"Any4Byte"}, 
    {"name":"AnyByte"}, 
    {"name":"AnyColor"}, 
    {"name":"AnyInt"}, 
    {"name":"AnyShort"}, 
    {"name":"ByteBinary1Bit"}, 
    {"name":"ByteBinary2Bit"}, 
    {"name":"ByteBinary4Bit"}, 
    {"name":"ByteGray"}, 
    {"name":"ByteIndexed"}, 
    {"name":"ByteIndexedBm"}, 
    {"name":"FourByteAbgr"}, 
    {"name":"FourByteAbgrPre"}, 
    {"name":"Index12Gray"}, 
    {"name":"Index8Gray"}, 
    {"name":"IntArgb"}, 
    {"name":"IntArgbBm"}, 
    {"name":"IntArgbPre"}, 
    {"name":"IntBgr"}, 
    {"name":"IntRgb"}, 
    {"name":"IntRgbx"}, 
    {"name":"OpaqueColor"}, 
    {"name":"ThreeByteBgr"}, 
    {"name":"Ushort4444Argb"}, 
    {"name":"Ushort555Rgb"}, 
    {"name":"Ushort555Rgbx"}, 
    {"name":"Ushort565Rgb"}, 
    {"name":"UshortGray"}, 
    {"name":"UshortIndexed"}
  ]
},
{
  "name":"sun.java2d.loops.TransformHelper",
  "methods":[{"name":"<init>","parameterTypes":["long","sun.java2d.loops.SurfaceType","sun.java2d.loops.CompositeType","sun.java2d.loops.SurfaceType"] }]
},
{
  "name":"sun.java2d.loops.XORComposite",
  "fields":[
    {"name":"alphaMask"}, 
    {"name":"xorColor"}, 
    {"name":"xorPixel"}
  ]
},
{
  "name":"sun.java2d.pipe.Region",
  "fields":[
    {"name":"bands"}, 
    {"name":"endIndex"}, 
    {"name":"hix"}, 
    {"name":"hiy"}, 
    {"name":"lox"}, 
    {"name":"loy"}
  ]
},
{
  "name":"sun.java2d.pipe.RegionIterator",
  "fields":[
    {"name":"curIndex"}, 
    {"name":"numXbands"}, 
    {"name":"region"}
  ]
},
{
  "name":"sun.java2d.windows.WindowsFlags",
  "fields":[
    {"name":"d3dEnabled"}, 
    {"name":"d3dSet"}, 
    {"name":"offscreenSharingEnabled"}, 
    {"name":"setHighDPIAware"}
  ]
},
{
  "name":"sun.java2d.xr.XRSurfaceData",
  "fields":[
    {"name":"picture"}, 
    {"name":"xid"}
  ]
}
]
